…
## Download Data in Any Language

Get a dataset from the official PXWeb API by BFS number (FSO number).

``` r
bfs_get_data(number_bfs = "px-x-1502040100_131", language = "en")
```
    ## # A tibble: 18,060 × 5
    ##   Year    `ISCED Field`     Sex    `Level of study` `University students`
    ##   <chr>   <chr>             <chr>  <chr>             <dbl>
    ## 1 1980/81 Education science Male   Master            151
    ## 2 1980/81 Education science Male   Doctorate         121
    ## 3 1980/81 Education science Female Master            555
    ## 4 1980/81 Education science Female Doctorate         306
    ## 5 1980/81 Education science Male   Master            143
    # ℹ 18,055 more rows
…
# Swiss Geodata

## Get the Geodata Catalog

Display geo-information catalog of the Swiss Official STAC API.

```r
catalog_geodata <- bfs_get_catalog_geodata()

catalog_geodata
```

    ## # A tibble: 281 × 12
    ##    collection_id     type  href  title description created updated
    ##    <chr>             <chr> <chr> <chr> <chr>       <chr>   <chr> 
    ##  1 ch.are.agglomera… API   http… Citi… "The list … 2021-1… 2023-0…
    ##  2 ch.are.alpenkonv… API   http… Alpi… "The perim… 2021-1… 2022-0…
    ##  3 ch.are.belastung… API   http… Load… "Passenger… 2021-1… 2022-0…
    ##  4 ch.are.belastung… API   http… Load… "Passenger… 2021-1… 2022-0…
    ##  5 ch.are.belastung… API   http… Load… "Vehicles … 2021-1… 2022-0…
    ##  6 ch.are.belastung… API   http… Load… "Vehicles … 2021-1… 2022-0…
    ##  7 ch.are.erreichba… API   http… Acce… "Accessibi… 2021-1… 2022-0…
    ##  8 ch.are.erreichba… API   http… Acce… "Accessibi… 2021-1… 2022-0…
    ##  9 ch.are.gemeindet… API   http… Typo… "The typol… 2021-1… 2022-0…
    ## 10 ch.are.gueteklas… API   http… Publ… "The publi… 2021-1… 2023-0…
    ## # ℹ 271 more rows
    ## # ℹ 3 more variables: provider_name <chr>, bbox <list>, inverval
…
