…
Pick the one matching the granularity of your data. For
“Wirtschaftsabteilung” (economic division) we want `DV_NOGA_DIVISION`.

## 2. Download the codelist

``` r

noga_division <- i14y_get_codelist(
  id = "08d94604-e058-62a2-aa25-53f84b974201" # DV_NOGA_DIVISION
) |>
  mutate(Code = as.numeric(Code))

noga_division
#> # A tibble: 88 × 12
#>     Code ParentCode Name_de       Name_fr Name_it Name_rm Name_en Description_de
#>    <dbl> <lgl>      <chr>         <chr>   <chr>   <lgl>   <chr>   <lgl>         
#>  1     1 NA         Landwirtscha… Cultur… Produz… NA      Crop a… NA            
#>  2     2 NA         Forstwirtsch… Sylvic… Silvic… NA      Forest… NA            
#>  3     3 NA         Fischerei un… Pêche … Pesca … NA      Fishin… NA            
#>  4     5 NA         Kohlenbergbau Extrac… Estraz… NA      Mining… NA            
#>  5     6 NA         Gewinnung vo… Extrac… Estraz… NA      Extrac… NA            
#>  6     7 NA         Erzbergbau    Extrac… Estraz… NA      Mining… NA            
#>  7     8 NA         Gewinnung vo… Autres… Altre … NA      Other … NA            
#>  8     9 NA         Erbringung v… Servic… Attivi… NA      Mining… NA            
#>  9    10 NA         Herstellung … Indust… Indust… NA      Manufa… NA            
#> 10    11 NA         Getränkehers… Fabric… Produz… NA      Manufa… NA            
#> # ℹ 78 more rows
#> # ℹ 4 more variables: Description_fr <lgl>, Description_it <lgl>,
#> #   Description_rm <lgl>, Description_en <lgl>
```
…
