Export multiple levels of a nomenclature — i14y_get_nomenclature_level_multiple • I14Y
…
    Value

    a tibble

    Examples

i14y_get_nomenclature_level_multiple(
  identifier = "HCL_CH_ISCO_19_PROF",
  format = "csv", # read internally
  levelFrom = 1,
  levelTo = 2,
  language = "fr"
 )
#> # A tibble: 62 × 4
#>    Grands_groupes `Sous-grands_groupes` Code  Name_fr                           
#>             <dbl> <chr>                 <chr> <chr>                             
#>  1              0 NA                    0     Professions militaires            
#>  2             NA 01                    01    Officiers des forces armées       
#>  3             NA 02                    02    Sous-officiers des forces armées  
#>  4             NA 03                    03    Autres membres des forces armées  
#>  5              1 NA                    1     Directeurs, cadres de direction e…
#>  6             NA 10                    10    Directeurs, cadres de direction e…
#>  7             NA 11                    11    Directeurs généraux, cadres supér…
#>  8             NA 12                    12    Directeurs de services administra…
#>  9             NA 13                    13    Directeurs et cadres de direction…
#> 10             NA 14                    14    Directeurs et gérants de l’hôtell…
#> # ℹ 52 more rows
…
